{
  "changes": [
    {
      "description": "Internal maintenance: bump project's dependencies to the latest.",
      "type": "patch"
    }
  ],
  "created_at": "2024-10-17T19:28:54+00:00",
  "version": "5.0.1"
}